simulation/qsim/projetofinal.msim.vcd
$comment
	File created using the following command:
		vcd file projetofinal.msim.vcd -direction
$end
$date
	Thu Jun 22 09:56:32 2023
$end
$version
	ModelSim Version 10.5b
$end
$timescale
	1ps
$end

$scope module projetofinal_vhd_vec_tst $end
$var wire 1 ! acerto $end
$var wire 1 " clk $end
$var wire 1 # correto [4] $end
$var wire 1 $ correto [3] $end
$var wire 1 % correto [2] $end
$var wire 1 & correto [1] $end
$var wire 1 ' correto [0] $end
$var wire 1 ( entrada [4] $end
$var wire 1 ) entrada [3] $end
$var wire 1 * entrada [2] $end
$var wire 1 + entrada [1] $end
$var wire 1 , entrada [0] $end
$var wire 1 - operador1 [2] $end
$var wire 1 . operador1 [1] $end
$var wire 1 / operador1 [0] $end
$var wire 1 0 operando1 [3] $end
$var wire 1 1 operando1 [2] $end
$var wire 1 2 operando1 [1] $end
$var wire 1 3 operando1 [0] $end
$var wire 1 4 operando2 [3] $end
$var wire 1 5 operando2 [2] $end
$var wire 1 6 operando2 [1] $end
$var wire 1 7 operando2 [0] $end
$var wire 1 8 pb0 $end
$var wire 1 9 pontos [4] $end
$var wire 1 : pontos [3] $end
$var wire 1 ; pontos [2] $end
$var wire 1 < pontos [1] $end
$var wire 1 = pontos [0] $end

$scope module i1 $end
$var wire 1 > gnd $end
$var wire 1 ? vcc $end
$var wire 1 @ unknown $end
$var wire 1 A devoe $end
$var wire 1 B devclrn $end
$var wire 1 C devpor $end
$var wire 1 D ww_devoe $end
$var wire 1 E ww_devclrn $end
$var wire 1 F ww_devpor $end
$var wire 1 G ww_entrada [4] $end
$var wire 1 H ww_entrada [3] $end
$var wire 1 I ww_entrada [2] $end
$var wire 1 J ww_entrada [1] $end
$var wire 1 K ww_entrada [0] $end
$var wire 1 L ww_pb0 $end
$var wire 1 M ww_clk $end
$var wire 1 N ww_operando1 [3] $end
$var wire 1 O ww_operando1 [2] $end
$var wire 1 P ww_operando1 [1] $end
$var wire 1 Q ww_operando1 [0] $end
$var wire 1 R ww_operador1 [2] $end
$var wire 1 S ww_operador1 [1] $end
$var wire 1 T ww_operador1 [0] $end
$var wire 1 U ww_operando2 [3] $end
$var wire 1 V ww_operando2 [2] $end
$var wire 1 W ww_operando2 [1] $end
$var wire 1 X ww_operando2 [0] $end
$var wire 1 Y ww_correto [4] $end
$var wire 1 Z ww_correto [3] $end
$var wire 1 [ ww_correto [2] $end
$var wire 1 \ ww_correto [1] $end
$var wire 1 ] ww_correto [0] $end
$var wire 1 ^ ww_acerto $end
$var wire 1 _ ww_pontos [4] $end
$var wire 1 ` ww_pontos [3] $end
$var wire 1 a ww_pontos [2] $end
$var wire 1 b ww_pontos [1] $end
$var wire 1 c ww_pontos [0] $end
$var wire 1 d \~QUARTUS_CREATED_ADC1~_CHSEL_bus\ [4] $end
$var wire 1 e \~QUARTUS_CREATED_ADC1~_CHSEL_bus\ [3] $end
$var wire 1 f \~QUARTUS_CREATED_ADC1~_CHSEL_bus\ [2] $end
$var wire 1 g \~QUARTUS_CREATED_ADC1~_CHSEL_bus\ [1] $end
$var wire 1 h \~QUARTUS_CREATED_ADC1~_CHSEL_bus\ [0] $end
$var wire 1 i \~QUARTUS_CREATED_ADC2~_CHSEL_bus\ [4] $end
$var wire 1 j \~QUARTUS_CREATED_ADC2~_CHSEL_bus\ [3] $end
$var wire 1 k \~QUARTUS_CREATED_ADC2~_CHSEL_bus\ [2] $end
$var wire 1 l \~QUARTUS_CREATED_ADC2~_CHSEL_bus\ [1] $end
$var wire 1 m \~QUARTUS_CREATED_ADC2~_CHSEL_bus\ [0] $end
$var wire 1 n \comb~2clkctrl_INCLK_bus\ [3] $end
$var wire 1 o \comb~2clkctrl_INCLK_bus\ [2] $end
$var wire 1 p \comb~2clkctrl_INCLK_bus\ [1] $end
$var wire 1 q \comb~2clkctrl_INCLK_bus\ [0] $end
$var wire 1 r \arit|resposta_parcial[4]~3clkctrl_INCLK_bus\ [3] $end
$var wire 1 s \arit|resposta_parcial[4]~3clkctrl_INCLK_bus\ [2] $end
$var wire 1 t \arit|resposta_parcial[4]~3clkctrl_INCLK_bus\ [1] $end
$var wire 1 u \arit|resposta_parcial[4]~3clkctrl_INCLK_bus\ [0] $end
$var wire 1 v \pb0~inputclkctrl_INCLK_bus\ [3] $end
$var wire 1 w \pb0~inputclkctrl_INCLK_bus\ [2] $end
$var wire 1 x \pb0~inputclkctrl_INCLK_bus\ [1] $end
$var wire 1 y \pb0~inputclkctrl_INCLK_bus\ [0] $end
$var wire 1 z \clk~inputclkctrl_INCLK_bus\ [3] $end
$var wire 1 { \clk~inputclkctrl_INCLK_bus\ [2] $end
$var wire 1 | \clk~inputclkctrl_INCLK_bus\ [1] $end
$var wire 1 } \clk~inputclkctrl_INCLK_bus\ [0] $end
$var wire 1 ~ \comb~1clkctrl_INCLK_bus\ [3] $end
$var wire 1 !! \comb~1clkctrl_INCLK_bus\ [2] $end
$var wire 1 "! \comb~1clkctrl_INCLK_bus\ [1] $end
$var wire 1 #! \comb~1clkctrl_INCLK_bus\ [0] $end
$var wire 1 $! \~QUARTUS_CREATED_GND~I_combout\ $end
$var wire 1 %! \~QUARTUS_CREATED_UNVM~~busy\ $end
$var wire 1 &! \~QUARTUS_CREATED_ADC1~~eoc\ $end
$var wire 1 '! \~QUARTUS_CREATED_ADC2~~eoc\ $end
$var wire 1 (! \operando1[0]~output_o\ $end
$var wire 1 )! \operando1[1]~output_o\ $end
$var wire 1 *! \operando1[2]~output_o\ $end
$var wire 1 +! \operando1[3]~output_o\ $end
$var wire 1 ,! \operador1[0]~output_o\ $end
$var wire 1 -! \operador1[1]~output_o\ $end
$var wire 1 .! \operador1[2]~output_o\ $end
$var wire 1 /! \operando2[0]~output_o\ $end
$var wire 1 0! \operando2[1]~output_o\ $end
$var wire 1 1! \operando2[2]~output_o\ $end
$var wire 1 2! \operando2[3]~output_o\ $end
$var wire 1 3! \correto[0]~output_o\ $end
$var wire 1 4! \correto[1]~output_o\ $end
$var wire 1 5! \correto[2]~output_o\ $end
$var wire 1 6! \correto[3]~output_o\ $end
$var wire 1 7! \correto[4]~output_o\ $end
$var wire 1 8! \acerto~output_o\ $end
$var wire 1 9! \pontos[0]~output_o\ $end
$var wire 1 :! \pontos[1]~output_o\ $end
$var wire 1 ;! \pontos[2]~output_o\ $end
$var wire 1 <! \pontos[3]~output_o\ $end
$var wire 1 =! \pontos[4]~output_o\ $end
$var wire 1 >! \pb0~input_o\ $end
$var wire 1 ?! \clk~input_o\ $end
$var wire 1 @! \clk~inputclkctrl_outclk\ $end
$var wire 1 A! \clock1|Add0~0_combout\ $end
$var wire 1 B! \clock1|count[0]~3_combout\ $end
$var wire 1 C! \clock1|Add0~1\ $end
$var wire 1 D! \clock1|Add0~2_combout\ $end
$var wire 1 E! \clock1|count~0_combout\ $end
$var wire 1 F! \clock1|Add0~3\ $end
$var wire 1 G! \clock1|Add0~4_combout\ $end
$var wire 1 H! \clock1|Add0~5\ $end
$var wire 1 I! \clock1|Add0~6_combout\ $end
$var wire 1 J! \clock1|Add0~7\ $end
$var wire 1 K! \clock1|Add0~8_combout\ $end
$var wire 1 L! \clock1|count~1_combout\ $end
$var wire 1 M! \clock1|Add0~9\ $end
$var wire 1 N! \clock1|Add0~10_combout\ $end
$var wire 1 O! \clock1|count~2_combout\ $end
$var wire 1 P! \clock1|Add0~11\ $end
$var wire 1 Q! \clock1|Add0~12_combout\ $end
$var wire 1 R! \clock1|Add0~13\ $end
$var wire 1 S! \clock1|Add0~14_combout\ $end
$var wire 1 T! \clock1|Add0~15\ $end
$var wire 1 U! \clock1|Add0~16_combout\ $end
$var wire 1 V! \clock1|Add0~17\ $end
$var wire 1 W! \clock1|Add0~18_combout\ $end
$var wire 1 X! \clock1|Add0~19\ $end
$var wire 1 Y! \clock1|Add0~20_combout\ $end
$var wire 1 Z! \clock1|Add0~21\ $end
$var wire 1 [! \clock1|Add0~22_combout\ $end
$var wire 1 \! \clock1|Add0~23\ $end
$var wire 1 ]! \clock1|Add0~24_combout\ $end
$var wire 1 ^! \clock1|Add0~25\ $end
$var wire 1 _! \clock1|Add0~26_combout\ $end
$var wire 1 `! \clock1|Add0~27\ $end
$var wire 1 a! \clock1|Add0~28_combout\ $end
$var wire 1 b! \clock1|Add0~29\ $end
$var wire 1 c! \clock1|Add0~30_combout\ $end
$var wire 1 d! \clock1|Add0~31\ $end
$var wire 1 e! \clock1|Add0~32_combout\ $end
$var wire 1 f! \clock1|Add0~33\ $end
$var wire 1 g! \clock1|Add0~34_combout\ $end
$var wire 1 h! \clock1|Add0~35\ $end
$var wire 1 i! \clock1|Add0~36_combout\ $end
$var wire 1 j! \clock1|Add0~37\ $end
$var wire 1 k! \clock1|Add0~38_combout\ $end
$var wire 1 l! \clock1|Add0~39\ $end
$var wire 1 m! \clock1|Add0~40_combout\ $end
$var wire 1 n! \clock1|Add0~41\ $end
$var wire 1 o! \clock1|Add0~42_combout\ $end
$var wire 1 p! \clock1|Add0~43\ $end
$var wire 1 q! \clock1|Add0~44_combout\ $end
$var wire 1 r! \clock1|Add0~45\ $end
$var wire 1 s! \clock1|Add0~46_combout\ $end
$var wire 1 t! \clock1|Add0~47\ $end
$var wire 1 u! \clock1|Add0~48_combout\ $end
$var wire 1 v! \clock1|Add0~49\ $end
$var wire 1 w! \clock1|Add0~50_combout\ $end
$var wire 1 x! \clock1|Add0~51\ $end
$var wire 1 y! \clock1|Add0~52_combout\ $end
$var wire 1 z! \clock1|Add0~53\ $end
$var wire 1 {! \clock1|Add0~54_combout\ $end
$var wire 1 |! \clock1|Add0~55\ $end
$var wire 1 }! \clock1|Add0~56_combout\ $end
$var wire 1 ~! \clock1|Add0~57\ $end
$var wire 1 !" \clock1|Add0~58_combout\ $end
$var wire 1 "" \clock1|Add0~59\ $end
$var wire 1 #" \clock1|Add0~60_combout\ $end
$var wire 1 $" \clock1|Add0~61\ $end
$var wire 1 %" \clock1|Add0~62_combout\ $end
$var wire 1 &" \clock1|Equal0~9_combout\ $end
$var wire 1 '" \clock1|Equal0~8_combout\ $end
$var wire 1 (" \clock1|Equal0~0_combout\ $end
$var wire 1 )" \clock1|Equal0~3_combout\ $end
$var wire 1 *" \clock1|Equal0~1_combout\ $end
$var wire 1 +" \clock1|Equal0~2_combout\ $end
$var wire 1 ," \clock1|Equal0~4_combout\ $end
$var wire 1 -" \clock1|Equal0~5_combout\ $end
$var wire 1 ." \clock1|Equal0~6_combout\ $end
$var wire 1 /" \clock1|Equal0~7_combout\ $end
$var wire 1 0" \clock1|Equal0~10_combout\ $end
$var wire 1 1" \clock1|tmp~0_combout\ $end
$var wire 1 2" \clock1|tmp~q\ $end
$var wire 1 3" \comb~2_combout\ $end
$var wire 1 4" \comb~2clkctrl_outclk\ $end
$var wire 1 5" \oper1|internal_count[0]~3_combout\ $end
$var wire 1 6" \oper1|internal_count[1]~0_combout\ $end
$var wire 1 7" \oper1|internal_count[2]~1_combout\ $end
$var wire 1 8" \oper1|internal_count[3]~2_combout\ $end
$var wire 1 9" \comb~0_combout\ $end
$var wire 1 :" \opr|internal_count[1]~1_combout\ $end
$var wire 1 ;" \opr|internal_count~2_combout\ $end
$var wire 1 <" \opr|internal_count~0_combout\ $end
$var wire 1 =" \clock2|Add0~0_combout\ $end
$var wire 1 >" \clock2|count~0_combout\ $end
$var wire 1 ?" \clock2|Add0~1\ $end
$var wire 1 @" \clock2|Add0~2_combout\ $end
$var wire 1 A" \clock2|Add0~3\ $end
$var wire 1 B" \clock2|Add0~4_combout\ $end
$var wire 1 C" \clock2|Add0~5\ $end
$var wire 1 D" \clock2|Add0~6_combout\ $end
$var wire 1 E" \clock2|count~1_combout\ $end
$var wire 1 F" \clock2|Add0~7\ $end
$var wire 1 G" \clock2|Add0~8_combout\ $end
$var wire 1 H" \clock2|Add0~9\ $end
$var wire 1 I" \clock2|Add0~10_combout\ $end
$var wire 1 J" \clock2|Add0~11\ $end
$var wire 1 K" \clock2|Add0~12_combout\ $end
$var wire 1 L" \clock2|count~2_combout\ $end
$var wire 1 M" \clock2|Add0~13\ $end
$var wire 1 N" \clock2|Add0~14_combout\ $end
$var wire 1 O" \clock2|Add0~15\ $end
$var wire 1 P" \clock2|Add0~16_combout\ $end
$var wire 1 Q" \clock2|Add0~17\ $end
$var wire 1 R" \clock2|Add0~18_combout\ $end
$var wire 1 S" \clock2|Add0~19\ $end
$var wire 1 T" \clock2|Add0~20_combout\ $end
$var wire 1 U" \clock2|Add0~21\ $end
$var wire 1 V" \clock2|Add0~22_combout\ $end
$var wire 1 W" \clock2|Add0~23\ $end
$var wire 1 X" \clock2|Add0~24_combout\ $end
$var wire 1 Y" \clock2|Add0~25\ $end
$var wire 1 Z" \clock2|Add0~26_combout\ $end
$var wire 1 [" \clock2|Add0~27\ $end
$var wire 1 \" \clock2|Add0~28_combout\ $end
$var wire 1 ]" \clock2|Add0~29\ $end
$var wire 1 ^" \clock2|Add0~30_combout\ $end
$var wire 1 _" \clock2|Add0~31\ $end
$var wire 1 `" \clock2|Add0~32_combout\ $end
$var wire 1 a" \clock2|Add0~33\ $end
$var wire 1 b" \clock2|Add0~34_combout\ $end
$var wire 1 c" \clock2|Add0~35\ $end
$var wire 1 d" \clock2|Add0~36_combout\ $end
$var wire 1 e" \clock2|Add0~37\ $end
$var wire 1 f" \clock2|Add0~38_combout\ $end
$var wire 1 g" \clock2|Add0~39\ $end
$var wire 1 h" \clock2|Add0~40_combout\ $end
$var wire 1 i" \clock2|Add0~41\ $end
$var wire 1 j" \clock2|Add0~42_combout\ $end
$var wire 1 k" \clock2|Add0~43\ $end
$var wire 1 l" \clock2|Add0~44_combout\ $end
$var wire 1 m" \clock2|Add0~45\ $end
$var wire 1 n" \clock2|Add0~46_combout\ $end
$var wire 1 o" \clock2|Add0~47\ $end
$var wire 1 p" \clock2|Add0~48_combout\ $end
$var wire 1 q" \clock2|Add0~49\ $end
$var wire 1 r" \clock2|Add0~50_combout\ $end
$var wire 1 s" \clock2|Add0~51\ $end
$var wire 1 t" \clock2|Add0~52_combout\ $end
$var wire 1 u" \clock2|Add0~53\ $end
$var wire 1 v" \clock2|Add0~54_combout\ $end
$var wire 1 w" \clock2|Add0~55\ $end
$var wire 1 x" \clock2|Add0~56_combout\ $end
$var wire 1 y" \clock2|Add0~57\ $end
$var wire 1 z" \clock2|Add0~58_combout\ $end
$var wire 1 {" \clock2|Add0~59\ $end
$var wire 1 |" \clock2|Add0~60_combout\ $end
$var wire 1 }" \clock2|Add0~61\ $end
$var wire 1 ~" \clock2|Add0~62_combout\ $end
$var wire 1 !# \clock2|Equal0~9_combout\ $end
$var wire 1 "# \clock2|Equal0~8_combout\ $end
$var wire 1 ## \clock2|Equal0~0_combout\ $end
$var wire 1 $# \clock2|Equal0~3_combout\ $end
$var wire 1 %# \clock2|Equal0~1_combout\ $end
$var wire 1 &# \clock2|Equal0~2_combout\ $end
$var wire 1 '# \clock2|Equal0~4_combout\ $end
$var wire 1 (# \clock2|Equal0~5_combout\ $end
$var wire 1 )# \clock2|Equal0~6_combout\ $end
$var wire 1 *# \clock2|Equal0~7_combout\ $end
$var wire 1 +# \clock2|Equal0~10_combout\ $end
$var wire 1 ,# \clock2|tmp~0_combout\ $end
$var wire 1 -# \clock2|tmp~q\ $end
$var wire 1 .# \comb~1_combout\ $end
$var wire 1 /# \comb~1clkctrl_outclk\ $end
$var wire 1 0# \oper2|internal_count[0]~3_combout\ $end
$var wire 1 1# \oper2|internal_count[1]~0_combout\ $end
$var wire 1 2# \oper2|internal_count[2]~1_combout\ $end
$var wire 1 3# \oper2|internal_count[3]~2_combout\ $end
$var wire 1 4# \arit|resposta_parcial[0]~0_combout\ $end
$var wire 1 5# \arit|Add1~0_combout\ $end
$var wire 1 6# \arit|Add0~0_combout\ $end
$var wire 1 7# \arit|resposta_parcial[0]~1_combout\ $end
$var wire 1 8# \arit|resposta_parcial[0]~2_combout\ $end
$var wire 1 9# \arit|resposta_parcial[4]~3_combout\ $end
$var wire 1 :# \arit|resposta_parcial[4]~3clkctrl_outclk\ $end
$var wire 1 ;# \arit|Add1~1\ $end
$var wire 1 <# \arit|Add1~2_combout\ $end
$var wire 1 =# \arit|Add0~1\ $end
$var wire 1 ># \arit|Add0~2_combout\ $end
$var wire 1 ?# \arit|resposta_parcial[1]~4_combout\ $end
$var wire 1 @# \arit|resposta_parcial[1]~5_combout\ $end
$var wire 1 A# \arit|resposta_parcial[1]~6_combout\ $end
$var wire 1 B# \arit|resposta_parcial[2]~8_combout\ $end
$var wire 1 C# \arit|Add1~3\ $end
$var wire 1 D# \arit|Add1~4_combout\ $end
$var wire 1 E# \arit|Add0~3\ $end
$var wire 1 F# \arit|Add0~4_combout\ $end
$var wire 1 G# \arit|resposta_parcial[2]~7_combout\ $end
$var wire 1 H# \arit|resposta_parcial[2]~9_combout\ $end
$var wire 1 I# \arit|Add1~5\ $end
$var wire 1 J# \arit|Add1~6_combout\ $end
$var wire 1 K# \arit|resposta_parcial[3]~10_combout\ $end
$var wire 1 L# \arit|Add0~5\ $end
$var wire 1 M# \arit|Add0~6_combout\ $end
$var wire 1 N# \arit|resposta_parcial[3]~11_combout\ $end
$var wire 1 O# \arit|resposta_parcial[3]~12_combout\ $end
$var wire 1 P# \arit|Add1~7\ $end
$var wire 1 Q# \arit|Add1~8_combout\ $end
$var wire 1 R# \arit|Add0~7\ $end
$var wire 1 S# \arit|Add0~8_combout\ $end
$var wire 1 T# \arit|resposta_parcial[4]~13_combout\ $end
$var wire 1 U# \arit|resposta_parcial[4]~14_combout\ $end
$var wire 1 V# \entrada[4]~input_o\ $end
$var wire 1 W# \entrada[0]~input_o\ $end
$var wire 1 X# \entrada[1]~input_o\ $end
$var wire 1 Y# \check1|Equal0~0_combout\ $end
$var wire 1 Z# \entrada[3]~input_o\ $end
$var wire 1 [# \entrada[2]~input_o\ $end
$var wire 1 \# \check1|Equal0~1_combout\ $end
$var wire 1 ]# \check1|Equal0~2_combout\ $end
$var wire 1 ^# \pb0~inputclkctrl_outclk\ $end
$var wire 1 _# \cont|Add0~1\ $end
$var wire 1 `# \cont|Add0~2_combout\ $end
$var wire 1 a# \cont|Add0~3\ $end
$var wire 1 b# \cont|Add0~4_combout\ $end
$var wire 1 c# \cont|internal_count[2]~3_combout\ $end
$var wire 1 d# \cont|Add0~5\ $end
$var wire 1 e# \cont|Add0~6_combout\ $end
$var wire 1 f# \cont|internal_count[3]~4_combout\ $end
$var wire 1 g# \cont|Add0~7\ $end
$var wire 1 h# \cont|Add0~8_combout\ $end
$var wire 1 i# \cont|internal_count[4]~5_combout\ $end
$var wire 1 j# \cont|Equal0~0_combout\ $end
$var wire 1 k# \cont|internal_count[1]~6_combout\ $end
$var wire 1 l# \cont|Equal0~1_combout\ $end
$var wire 1 m# \cont|Add0~0_combout\ $end
$var wire 1 n# \cont|internal_count[0]~2_combout\ $end
$var wire 1 o# \oper1|internal_count\ [3] $end
$var wire 1 p# \oper1|internal_count\ [2] $end
$var wire 1 q# \oper1|internal_count\ [1] $end
$var wire 1 r# \oper1|internal_count\ [0] $end
$var wire 1 s# \arit|resposta_parcial\ [4] $end
$var wire 1 t# \arit|resposta_parcial\ [3] $end
$var wire 1 u# \arit|resposta_parcial\ [2] $end
$var wire 1 v# \arit|resposta_parcial\ [1] $end
$var wire 1 w# \arit|resposta_parcial\ [0] $end
$var wire 1 x# \opr|internal_count\ [2] $end
$var wire 1 y# \opr|internal_count\ [1] $end
$var wire 1 z# \opr|internal_count\ [0] $end
$var wire 1 {# \oper2|internal_count\ [3] $end
$var wire 1 |# \oper2|internal_count\ [2] $end
$var wire 1 }# \oper2|internal_count\ [1] $end
$var wire 1 ~# \oper2|internal_count\ [0] $end
$var wire 1 !$ \cont|internal_count\ [4] $end
$var wire 1 "$ \cont|internal_count\ [3] $end
$var wire 1 #$ \cont|internal_count\ [2] $end
$var wire 1 $$ \cont|internal_count\ [1] $end
$var wire 1 %$ \cont|internal_count\ [0] $end
$var wire 1 &$ \clock1|count\ [31] $end
$var wire 1 '$ \clock1|count\ [30] $end
$var wire 1 ($ \clock1|count\ [29] $end
$var wire 1 )$ \clock1|count\ [28] $end
$var wire 1 *$ \clock1|count\ [27] $end
$var wire 1 +$ \clock1|count\ [26] $end
$var wire 1 ,$ \clock1|count\ [25] $end
$var wire 1 -$ \clock1|count\ [24] $end
$var wire 1 .$ \clock1|count\ [23] $end
$var wire 1 /$ \clock1|count\ [22] $end
$var wire 1 0$ \clock1|count\ [21] $end
$var wire 1 1$ \clock1|count\ [20] $end
$var wire 1 2$ \clock1|count\ [19] $end
$var wire 1 3$ \clock1|count\ [18] $end
$var wire 1 4$ \clock1|count\ [17] $end
$var wire 1 5$ \clock1|count\ [16] $end
$var wire 1 6$ \clock1|count\ [15] $end
$var wire 1 7$ \clock1|count\ [14] $end
$var wire 1 8$ \clock1|count\ [13] $end
$var wire 1 9$ \clock1|count\ [12] $end
$var wire 1 :$ \clock1|count\ [11] $end
$var wire 1 ;$ \clock1|count\ [10] $end
$var wire 1 <$ \clock1|count\ [9] $end
$var wire 1 =$ \clock1|count\ [8] $end
$var wire 1 >$ \clock1|count\ [7] $end
$var wire 1 ?$ \clock1|count\ [6] $end
$var wire 1 @$ \clock1|count\ [5] $end
$var wire 1 A$ \clock1|count\ [4] $end
$var wire 1 B$ \clock1|count\ [3] $end
$var wire 1 C$ \clock1|count\ [2] $end
$var wire 1 D$ \clock1|count\ [1] $end
$var wire 1 E$ \clock1|count\ [0] $end
$var wire 1 F$ \clock2|count\ [31] $end
$var wire 1 G$ \clock2|count\ [30] $end
$var wire 1 H$ \clock2|count\ [29] $end
$var wire 1 I$ \clock2|count\ [28] $end
$var wire 1 J$ \clock2|count\ [27] $end
$var wire 1 K$ \clock2|count\ [26] $end
$var wire 1 L$ \clock2|count\ [25] $end
$var wire 1 M$ \clock2|count\ [24] $end
$var wire 1 N$ \clock2|count\ [23] $end
$var wire 1 O$ \clock2|count\ [22] $end
$var wire 1 P$ \clock2|count\ [21] $end
$var wire 1 Q$ \clock2|count\ [20] $end
$var wire 1 R$ \clock2|count\ [19] $end
$var wire 1 S$ \clock2|count\ [18] $end
$var wire 1 T$ \clock2|count\ [17] $end
$var wire 1 U$ \clock2|count\ [16] $end
$var wire 1 V$ \clock2|count\ [15] $end
$var wire 1 W$ \clock2|count\ [14] $end
$var wire 1 X$ \clock2|count\ [13] $end
$var wire 1 Y$ \clock2|count\ [12] $end
$var wire 1 Z$ \clock2|count\ [11] $end
$var wire 1 [$ \clock2|count\ [10] $end
$var wire 1 \$ \clock2|count\ [9] $end
$var wire 1 ]$ \clock2|count\ [8] $end
$var wire 1 ^$ \clock2|count\ [7] $end
$var wire 1 _$ \clock2|count\ [6] $end
$var wire 1 `$ \clock2|count\ [5] $end
$var wire 1 a$ \clock2|count\ [4] $end
$var wire 1 b$ \clock2|count\ [3] $end
$var wire 1 c$ \clock2|count\ [2] $end
$var wire 1 d$ \clock2|count\ [1] $end
$var wire 1 e$ \clock2|count\ [0] $end
$upscope $end
$upscope $end
$enddefinitions $end
#0
$dumpvars
1!
0"
08
0>
1?
x@
1A
1B
1C
1D
1E
1F
0L
0M
1^
0$!
z%!
z&!
z'!
0(!
0)!
0*!
0+!
0,!
0-!
0.!
0/!
00!
01!
02!
03!
04!
05!
06!
07!
18!
09!
0:!
0;!
0<!
0=!
0>!
0?!
0@!
0A!
1B!
1C!
1D!
1E!
1F!
0G!
0H!
0I!
1J!
0K!
0L!
0M!
0N!
0O!
1P!
0Q!
0R!
0S!
1T!
0U!
0V!
0W!
1X!
0Y!
0Z!
0[!
1\!
0]!
0^!
0_!
1`!
0a!
0b!
0c!
1d!
0e!
0f!
0g!
1h!
0i!
0j!
0k!
1l!
0m!
0n!
0o!
1p!
0q!
0r!
0s!
1t!
0u!
0v!
0w!
1x!
0y!
0z!
0{!
1|!
0}!
0~!
0!"
1""
0#"
0$"
0%"
1&"
1'"
0("
1)"
0*"
1+"
0,"
1-"
1."
1/"
00"
01"
02"
03"
04"
15"
06"
07"
08"
09"
0:"
0;"
1<"
0="
1>"
1?"
1@"
1A"
0B"
0C"
0D"
0E"
1F"
0G"
0H"
0I"
1J"
0K"
0L"
0M"
0N"
1O"
0P"
0Q"
0R"
1S"
0T"
0U"
0V"
1W"
0X"
0Y"
0Z"
1["
0\"
0]"
0^"
1_"
0`"
0a"
0b"
1c"
0d"
0e"
0f"
1g"
0h"
0i"
0j"
1k"
0l"
0m"
0n"
1o"
0p"
0q"
0r"
1s"
0t"
0u"
0v"
1w"
0x"
0y"
0z"
1{"
0|"
0}"
0~"
1!#
1"#
0##
1$#
0%#
1&#
0'#
1(#
1)#
1*#
0+#
0,#
0-#
0.#
0/#
10#
01#
02#
03#
04#
05#
06#
07#
08#
19#
1:#
1;#
0<#
0=#
0>#
0?#
0@#
0A#
0B#
0C#
0D#
1E#
0F#
0G#
0H#
1I#
0J#
0K#
0L#
0M#
0N#
0O#
0P#
0Q#
1R#
0S#
0T#
0U#
0V#
0W#
0X#
1Y#
0Z#
0[#
1\#
1]#
0^#
0_#
0`#
1a#
0b#
0c#
0d#
0e#
0f#
1g#
0h#
0i#
0j#
0k#
0l#
1m#
1n#
0(
0)
0*
0+
0,
0G
0H
0I
0J
0K
0N
0O
0P
0Q
0R
0S
0T
0U
0V
0W
0X
0Y
0Z
0[
0\
0]
0_
0`
0a
0b
0c
0o#
0p#
0q#
0r#
0s#
0t#
0u#
0v#
0w#
0x#
0y#
0z#
0{#
0|#
0}#
0~#
0!$
0"$
0#$
0$$
0%$
0&$
0'$
0($
0)$
0*$
0+$
0,$
0-$
0.$
0/$
00$
01$
02$
03$
04$
05$
06$
07$
08$
09$
0:$
0;$
0<$
0=$
0>$
0?$
0@$
0A$
0B$
0C$
0D$
0E$
0F$
0G$
0H$
0I$
0J$
0K$
0L$
0M$
0N$
0O$
0P$
0Q$
0R$
0S$
0T$
0U$
0V$
0W$
0X$
0Y$
0Z$
0[$
0\$
0]$
0^$
0_$
0`$
0a$
0b$
0c$
0d$
0e$
1z
1{
1|
0}
1n
1o
1p
0q
1~
1!!
1"!
0#!
1r
1s
1t
1u
1v
1w
1x
0y
0d
0e
0f
0g
0h
0i
0j
0k
0l
0m
0#
0$
0%
0&
0'
0-
0.
0/
00
01
02
03
04
05
06
07
09
0:
0;
0<
0=
$end
#1000
1"
1M
1?!
1}
1@!
1E$
1D$
1e$
1d$
0@"
0A"
1="
0?"
0D!
0F!
1A!
0C!
1("
1D!
1F!
0B!
1G!
0E!
1@"
1A"
0>"
1B"
0B"
0G!
1E!
#2000
0"
0M
0?!
0}
0@!
#3000
1"
1M
1?!
1}
1@!
0E$
0e$
0="
1?"
0A!
1C!
0("
0D!
0F!
1B!
0@"
0A"
1>"
1B"
1G!
0E!
#4000
0"
0M
0?!
0}
0@!
#5000
1"
1M
1?!
1}
1@!
1E$
0D$
1C$
1e$
0d$
1c$
0B"
1C"
1@"
1A"
1="
0?"
0G!
1H!
1D!
1F!
1A!
0C!
0D!
0B!
1G!
0H!
1E!
1I!
0@"
0>"
1B"
0C"
1D"
1E"
0D"
0I!
0E!
0E"
#6000
0"
0M
0?!
0}
0@!
#7000
1"
1M
1?!
1}
1@!
0E$
0e$
0="
1?"
0A!
1C!
1D!
1B!
1@"
1>"
1E!
#8000
0"
0M
0?!
0}
0@!
#9000
1"
1M
1?!
1}
1@!
1E$
1D$
1e$
1d$
0@"
0A"
1="
0?"
0D!
0F!
1A!
0C!
1D!
1F!
0B!
0G!
1H!
0E!
1@"
1A"
0>"
0B"
1C"
1D"
1B"
0C"
1I!
1G!
0H!
1E!
0I!
0D"
1E"
0E"
#10000
0"
0M
0?!
0}
0@!
#11000
1"
1M
1?!
1}
1@!
0E$
0e$
0="
1?"
1##
0A!
1C!
0D!
0F!
1B!
0@"
0A"
1>"
0B"
1C"
0G!
1H!
0E!
1I!
1D"
1E"
#12000
0"
0M
0?!
0}
0@!
#13000
1"
1M
1?!
1}
1@!
1E$
0D$
0C$
1B$
1e$
0d$
0c$
1b$
0D"
0F"
1B"
0C"
1@"
1A"
1="
0?"
0##
0I!
0J!
1G!
0H!
1D!
1F!
1A!
0C!
0D!
0B!
0G!
1E!
1I!
1J!
1K!
0@"
0>"
0B"
1D"
1F"
1G"
0E"
0G"
1E"
1L!
0K!
0E!
0L!
#14000
0"
0M
0?!
0}
0@!
#15000
1"
1M
1?!
1}
1@!
0E$
0e$
0="
1?"
0A!
1C!
1D!
1B!
1@"
1>"
1E!
#16000
0"
0M
0?!
0}
0@!
#17000
1"
1M
1?!
1}
1@!
1E$
1D$
1e$
1d$
0@"
0A"
1="
0?"
0D!
0F!
1A!
0C!
1D!
1F!
0B!
1G!
0E!
1@"
1A"
0>"
1B"
0B"
0G!
1E!
#18000
0"
0M
0?!
0}
0@!
#19000
1"
1M
1?!
1}
1@!
0E$
0e$
0="
1?"
0A!
1C!
0D!
0F!
1B!
0@"
0A"
1>"
1B"
1G!
0E!
#20000
0"
0M
0?!
0}
0@!
#21000
1"
1M
1?!
1}
1@!
1E$
0D$
1C$
1e$
0d$
1c$
0B"
1C"
1@"
1A"
1="
0?"
0G!
1H!
1D!
1F!
1A!
0C!
0D!
0B!
1G!
0H!
1E!
0I!
0J!
0@"
0>"
1B"
0C"
0D"
0F"
1G"
0E"
1D"
1F"
1K!
1I!
1J!
0E!
0K!
1L!
0G"
1E"
0L!
#22000
0"
0M
0?!
0}
0@!
#23000
1"
1M
1?!
1}
1@!
0E$
0e$
0="
1?"
0A!
1C!
1D!
1B!
1@"
1>"
1E!
#24000
0"
0M
0?!
0}
0@!
